Credit Default Risk
…
##  5 FONDKAPREMONT_MODE     210295  97216    3075~ 13    21    0     4       
##  6 HOUSETYPE_MODE         154297  153214   3075~ 14    16    0     3       
##  7 NAME_CONTRACT_TYPE     0       307511   3075~ 10    15    0     2       
##  8 NAME_EDUCATION_TYPE    0       307511   3075~ 15    29    0     5       
##  9 NAME_FAMILY_STATUS     0       307511   3075~ 5     20    0     6       
## 10 NAME_HOUSING_TYPE      0       307511   3075~ 12    19    0     6       
## 11 NAME_INCOME_TYPE       0       307511   3075~ 7     20    0     8       
## 12 NAME_TYPE_SUITE        1292    306219   3075~ 6     15    0     7       
## 13 OCCUPATION_TYPE        96391   211120   3075~ 7     21    0     18      
## 14 ORGANIZATION_TYPE      0       307511   3075~ 3     22    0     58      
## 15 WALLSMATERIAL_MODE     156341  151170   3075~ 5     12    0     7       
## 16 WEEKDAY_APPR_PROCESS_~ 0       307511   3075~ 6     9     0     7       
## 
## $numeric
## # A tibble: 106 x 12
##    variable missing complete n     mean  sd    p0    p25   p50   p75  
##  * <chr>    <chr>   <chr>    <chr> <chr> <chr> <chr> <chr> <chr> <chr>
##  1 AMT_ANN~ 12      307499   3075~ " 27~ " 14~ "  1~ " 16~ " 24~ " 34~
##  2 AMT_CRE~ 0       307511   3075~ " 6e~ " 4e~ " 45~ "270~ "513~ "808~
##  3 AMT_GOO~ 278     307233   3075~ "538~ "369~ " 40~ "238~ "450~ "679~
##  4 AMT_INC~ 0       307511   3075~ "168~ "237~ " 25~ "112~ "147~ " 2e~
##  5 AMT_REQ~ 41519   265992   3075~ "   ~ "   ~ "   ~ "   ~ "   ~ "   ~
##  6 AMT_REQ~ 41519   265992   3075~ "   ~ "   ~ "   ~ "   ~ "   ~ "   ~
##  7 AMT_REQ~ 41519   265992   3075~ "   ~ "   ~ "   ~ "   ~ "   ~ "   ~
##  8 AMT_REQ~ 41519   265992   3075~ "   ~ "   ~ "   ~ "   ~ "   ~ "   ~
##  9 AMT_REQ~ 41519   265992   3075~ "   ~ "   ~ "   ~ "   ~ "   ~ "   ~
## 10 AMT_REQ~ 41519   265992   3075~ "   ~ "   ~ "   ~ "   ~ "   ~ "   ~
## # ... with 96 more rows, and 2 more variables: p100 <chr>, hist <chr>
…
unique_numeric_values_tbl <- temp %>%
    select_if(is.numeric) %>%
    map_df(~ unique(.) %>% length()) %>%
    gather() %>%
    arrange(value) %>%
    mutate(key = as_factor(key))

unique_numeric_values_tbl

## # A tibble: 68 x 2
##    key                         value
##    <fct>                       <int>
##  1 TARGET                          2
##  2 FLAG_MOBIL                      2
##  3 FLAG_EMP_PHONE                  2
##  4 FLAG_WORK_PHONE                 2
##  5 FLAG_CONT_MOBILE                2
##  6 FLAG_PHONE                      2
##  7 FLAG_EMAIL                      2
##  8 REG_REGION_NOT_LIVE_REGION      2
##  9 REG_REGION_NOT_WORK_REGION      2
## 10 LIVE_REGION_NOT_WORK_REGION     2
## # ... with 58 more rows
…
Updating Categorical Columns

We must change categorical columns with many levels into numeric. Earlier we cleaned numeric data with only several unique values by turning them into categoricals, but not the other way around. We need to do this in order for random forest to run successfully.

unique_categorical_levels_tbl <- temp_processed %>%
    select_if(is.factor) %>%
    map_df(~ unique(.) %>% length()) %>%
    gather() %>%
    arrange(value) %>%
    mutate(key = as_factor(key))

unique_categorical_levels_tbl

## # A tibble: 51 x 2
##    key                value
##    <fct>              <int>
##  1 TARGET                 2
##  2 NAME_CONTRACT_TYPE     2
##  3 FLAG_OWN_CAR           2
##  4 FLAG_OWN_REALTY        2
##  5 FLAG_MOBIL             2
##  6 FLAG_EMP_PHONE         2
##  7 FLAG_WORK_PHONE        2
##  8 FLAG_CONT_MOBILE       2
##  9 FLAG_PHONE             2
## 10 FLAG_EMAIL             2
## # ... with 41 more rows
…
